Species,Specimen,H1,H2,As_ball,As_paper,As
,,(%),(%),(m2),(m2),(m2)
Alder,A1,0,25,0.0237,0.0242,0.0239
Alder,A1,25,50,0.0306,0.0296,0.0301
Alder,A1,50,75,0.1005,0.0973,0.0989
Alder,A1,75,100,0.0829,0.0789,0.0809
,,,,,,
Poplar,P1,0,25,0.0354,0.0353,0.0353
Poplar,P1,25,50,0.0751,0.072,0.0736
Poplar,P1,50,75,0.0607,0.0581,0.0594
Poplar,P1,75,100,0.0225,0.0226,0.0225
,,,,,,
Willow,S1,0,25,0.0286,0.029,0.0288
Willow,S1,25,50,0.0906,0.0894,0.09
Willow,S1,50,75,0.2742,0.2746,0.2744
Willow,S1,75,100,0.1841,0.181,0.1825
